{
  "images" : [
    {
      "filename" : "icon--未收藏.png",
      "idiom" : "universal",
      "scale" : "1x"
    },
    {
      "filename" : "icon--未收藏@2x.png",
      "idiom" : "universal",
      "scale" : "2x"
    },
    {
      "filename" : "icon--未收藏@3x.png",
      "idiom" : "universal",
      "scale" : "3x"
    }
  ],
  "info" : {
    "author" : "xcode",
    "version" : 1
  }
}
